26.44556596
26.54708314
26.4128679
26.52056986
26.47349803
26.57174118
26.50182427
26.52584841
26.40087431
26.54086237
26.48283137
26.5139494
26.49878347
26.45264528
26.58452669
26.39723487
26.42999642
26.64703685
26.46870061
26.40594006
26.45739624
26.52975907
26.57747978
26.46696042
26.50474867
26.5029872
26.45077077
26.38867231
26.50398382
26.44687702
26.45900204
26.56629196
26.50012259
26.47339019
26.44402639
26.50175935
26.58632749
26.40534418
26.57805998
26.56651476
26.49709843
26.43250082
26.44755333
26.48108221
26.49758154
26.50243527
26.41924857
26.59166141
26.50598829
26.46916186
26.42357563
26.44533999
26.50959705
26.48845682
26.46749031
26.53904128
26.52669102
26.44568935
26.53345322
26.42903814
26.49558126
26.41238788
26.52142579
26.39903705
26.57781369
26.53226991
26.5261574
26.38124808
26.39803414
26.51755145
26.49855967
26.46737793
26.41352516
26.52675592
26.46152853
26.56453353
26.55134329
26.4736493
26.57399971
26.46468063
26.54461258
26.52585058
26.45293536
26.43364191
26.52637797
26.46074871
26.59274833
26.42129799
26.45747615
26.57729486
26.59134443
26.50736544
26.45888919
26.51580005
26.54038585
26.4358069
26.47000361
26.57427526
26.47243288
26.33443376
