33.2867207
34.98172335
34.60297569
33.89571921
34.49957013
33.65081138
33.44944953
33.60240347
35.20008851
33.27539487
33.86705447
34.65742357
32.91999915
34.07908925
34.62039318
33.56269178
34.06789888
34.54660632
34.004481
34.23016016
33.95178682
34.39111698
33.83439095
34.85338813
32.66615008
33.31738765
33.65893506
35.07206826
34.28022114
34.82820754
34.35592986
34.58483259
34.8785129
33.2984083
34.30843374
33.85472463
34.17499134
34.41221274
34.66669986
33.97890743
34.39443029
34.27902946
34.82375499
34.01981036
34.62360305
33.50405538
35.19825697
33.9748647
33.20866805
33.43241731
33.32064188
34.83986333
35.34595878
34.69874396
34.79670299
35.09596961
34.40870487
35.00864036
34.64996627
33.98918009
33.73181114
34.80175481
33.34949748
34.20327346
34.11709541
32.63998175
34.59588649
33.34512611
34.49963586
33.99943445
34.0247964
34.37450334
34.85335835
33.22441636
33.17396586
34.60313841
35.00417394
34.63472304
34.11546942
34.1472282
34.56120753
35.50014032
33.53405023
34.27242919
34.38769555
33.23922361
33.34477487
33.89532568
34.81647412
34.14888215
34.03969204
35.27463786
35.35129705
34.14914867
34.47468274
34.31474665
34.27564195
33.52761908
34.11060365
34.30898473
